^C:\TIMECONTROLLERADMINAPP\TIMECONTROLLERADMINAPP\FORMADMIN.RESX
C:\WINDOWS\ASSEMBLY\GAC_MSIL\CRYSTALDECISIONS.CRYSTALREPORTS.ENGINE\12.0.2000.0__692FBEA5521E1304\CRYSTALDECISIONS.CRYSTALREPORTS.ENGINE.DLL
C:\WINDOWS\ASSEMBLY\GAC_MSIL\CRYSTALDECISIONS.REPORTSOURCE\12.0.2000.0__692FBEA5521E1304\CRYSTALDECISIONS.REPORTSOURCE.DLL
C:\WINDOWS\ASSEMBLY\GAC_MSIL\CRYSTALDECISIONS.SHARED\12.0.2000.0__692FBEA5521E1304\CRYSTALDECISIONS.SHARED.DLL
C:\WINDOWS\ASSEMBLY\GAC_MSIL\CRYSTALDECISIONS.WINDOWS.FORMS\12.0.2000.0__692FBEA5521E1304\CRYSTALDECISIONS.WINDOWS.FORMS.DLL
C:\WINDOWS\ASSEMBLY\GAC_64\SYSTEM.DATA\2.0.0.0__B77A5C561934E089\SYSTEM.DATA.DLL
^C:\TIMECONTROLLERADMINAPP\TIMECONTROLLERADMINAPP\FORMREPORT.RESX
^C:\TIMECONTROLLERADMINAPP\TIMECONTROLLERADMINAPP\PROPERTIES\RESOURCES.RESX
